{
  "name": "Nick",
  "lastname": "Nicholson",
  "age": 32,
  "address": [{
    "street": "Wexiöstreet",
    "streetnumber": "6",
    "city": "Wexiö",
    "state": "Kronoberg",
    "country": "Sweden"
  }],
  "contact": [{
    "phone": "123-456 78 90",
    "mobile": "mobil",
    "mail": "pa@somemail.com",
    "git": "git user",
    "linkedin": "linkedin user",
    "facebook": "facebook user",
    "stackoverflow": "stack user"
  }],
  "education": [
    {
    "school": "Luleå University of Technology",
    "city": "Luleå",
    "programme": "Bachelor Programme in Computer Science and Engineering",
    "startdate": "2015",
    "enddate": "2018",
    "degree": "Failed"
  },
    {
      "school": "Luleå University of Technology",
      "city": "Luleå",
      "programme": "Preparatory Programme in Technology",
      "startdate": "2014",
      "enddate": "2015",
      "degree": "Passed"
    }
  ],
  "experience":
    [
      {
        "title": "George Clooney Lookalike",
        "company": "rentAclooney.com",
        "location": "The interweb",
        "role": "Pretended to be George Clooney on parties and events where their budget did not allow for the real thing",
        "expstartdate": "2000",
        "expenddate": "Present",
        "tasks": [
          {
            "developer": "Cloney",
            "description": "Pretend to be George Clooney"
          }
        ]
      },
      {
        "title": "Developer",
        "company": "Some company",
        "location": "The moon",
        "role": "Write code to prevent aliens to take over the world",
        "expstartdate": "19 BBY",
        "expenddate": "5 ABY",
        "tasks": [
          {
            "developer": "Java",
            "description": "Worked on a translator to ease alien communication",
            "developer1": "C++",
            "description1": "Ported the translator written in Java to C++ because the Aliens didn't have Java"
          }
        ]
      }
    ],
  "skills":[
    {
    "skillname": "C++"
    },
    {
      "skillname": "Java"
    },
    {
      "skillname": "Ruby"
    },
    {
      "skillname": "Angular"
    },
    {
      "skillname": "Nodejs"
    },
    {
      "skillname": "Linux kernel"
    }],

  "language": [{
    "language": "english",
    "spoken": "Proficient",
    "written": "not as good"
  }],
  "references": [{
    "firstname": "urban",
    "lastname": "urbansson",
    "workplace": "geegle",
    "position": "the boss",
    "phone": "contact phone",
    "email": "urban@theboss.com"
  }],
  "imageurl": "",
  "profile": "I'm used to work in verry high stress and high pace enviroments. During my time on the moon i often had to use my people skills while trying to communicate with the aliens. "
}
